…
-   engineer features based on episode scripts
-   train a model
-   perform cross validation
-   make predictions

Note: The episodes listed in `theoffice` don’t match the ones listed in
the data we used in the [cross validation
lesson](https://ids-s1-20.github.io/slides/week-10/w10-d02-cross-validation/w10-d02-cross-validation.html).

``` r
theoffice %>%
  distinct(season, episode)
```

    ## # A tibble: 186 × 2
    ##    season episode
    ##     <int>   <int>
    ##  1      1       1
    ##  2      1       2
    ##  3      1       3
    ##  4      1       4
    ##  5      1       5
    ##  6      1       6
    ##  7      2       1
    ##  8      2       2
    ##  9      2       3
    ## 10      2       4
    ## # … with 176 more rows
    ## # ℹ Use `print(n = ...)` to see more rows

### Exercise 1 - Calculate the percentage of lines spoken by Jim, Pam, Michael, and Dwight for each episode of The Office.

``` r
office_lines <- theoffice %>%
  group_by(season, episode) %>%
  mutate(n_lines = n()) %>%
  relocate(n_lines) %>%
  print()
```

    ## # A tibble: 55,130 × 13
    ## # Groups:   season, episode [186]
    ##    n_lines index season episode episode_n…¹ direc…² writer chara…³ text  text_…⁴
    ##      <int> <int>  <int>   <int> <chr>       <chr>   <chr>  <chr>   <chr> <chr>  
    ##  1     229     1      1       1 Pilot       Ken Kw… Ricky… Michael All … All ri…
    ##  2     229     2      1       1 Pilot       Ken Kw… Ricky… Jim     Oh, … Oh, I …
    ##  3     229     3      1       1 Pilot       Ken Kw… Ricky… Michael So y… So you…
    ##  4     229     4      1       1 Pilot       Ken Kw… Ricky… Jim     Actu… Actual…
    ##  5     229     5      1       1 Pilot       Ken Kw… Ricky… Michael All … All ri…
    ##  6     229     6      1       1 Pilot       Ken Kw… Ricky… Michael Yes,… [on th…
    ##  7     229     7      1       1 Pilot       Ken Kw… Ricky… Michael I've… I've, …
    ##  8     229     8      1       1 Pilot       Ken Kw… Ricky… Pam     Well… Well. …
    ##  9     229     9      1       1 Pilot       Ken Kw… Ricky… Michael If y… If you…
    ## 10     229    10      1       1 Pilot       Ken Kw… Ricky… Pam     What? What?  
    ## # … with 55,120 more rows, 3 more variables: imdb_rating <dbl>,
    ## #   total_votes <int>, air_date <date>, and abbreviated variable names
    ## #   ¹​episode_name, ²​director, ³​character, ⁴​text_w_direction
    ## # ℹ Use `print(n = ...)` to see more rows, and `colnames()` to see all variable names
…
